{
  "data": [
      {
          "id": 4,
          "order": 4,
          "name": "最佳赶海时间",
          "time": "17点-19点",
          "description": "赶海",
          "bg_url": "https://r.photo.store.qq.com/psc?/V547xhag48w5IS4I7n9m0wxiY01rHISQ/45NBuzDIW489QBoVep5mcXbjKxNO9tawAVwqokvDNDbzYMglJ2zqMO6a0BYCWu384QSpICiiizifBRejFSn*wQLxfG*NqCbOOhISj9FOPk8!/r"
      },
      {
          "id": 2,
          "order": 2,
          "name": "日出/日落时间",
          "time": "6点/19点",
          "description": "日出日落",
          "bg_url": "http://r.photo.store.qq.com/psc?/V547xhag48w5IS4I7n9m0wxiY01rHISQ/45NBuzDIW489QBoVep5mcbQQ99S2ddj4mY05mhhUHGbN*5bRtaOyLbnxcm8QTFAU.xLI2AZG97VYXFjvvWquBlmnDl7EPTeH7Tm8LneicOk!/r"
      },
      {
          "id": 3,
          "order": 3,
          "name": "最佳游泳时间",
          "time": "11点-13点",
          "description": "游泳",
          "bg_url": "https://r.photo.store.qq.com/psc?/V547xhag48w5IS4I7n9m0wxiY01rHISQ/45NBuzDIW489QBoVep5mcbQQ99S2ddj4mY05mhhUHGZMqvue8rMMy*xJ5muMXVYN9M6CIDXj2XqohxwzrajDsSYiOHfhH.XNdANEyIWZQM8!/r"
      },
      {
          "id": 1,
          "order": 1,
          "name": "潮汐时间",
          "time": "涨满：12点/退干：18点",
          "description": "潮汐",
          "bg_url": "https://r.photo.store.qq.com/psc?/V547xhag48w5IS4I7n9m0wxiY01rHISQ/45NBuzDIW489QBoVep5mcbQQ99S2ddj4mY05mhhUHGYMEnEaaWxMmeVjc2ATP4MrWBhaA.ysIyb5Q1iNtdyQOJXn1D6xSfsqy2N2J2jRTJY!/r"
      }
  ],
  "errorCode": 0,
  "errorMsg": ""
}
